<svg width="60" height="60" viewBox="0 0 60 60" fill="none" xmlns="http://www.w3.org/2000/svg">
    <rect x="23" y="21" width="14" height="8" fill="#FFBF00"/>
    <path d="M36 6.5C35.8333 4.66667 34.4 1 30 1C26 1 24.3333 5 23.9999 7H26C25.5 10.3333 25.6 17 30 17C34.4 17 34.5 10.3333 34 7L36 6.5Z"
          fill="#FFBF00"/>
    <path d="M22 20V30H38V20H22ZM36 28H24V22H29V26H31V22H36V28Z" fill="#111111"/>
    <path d="M30 0C26.134 0 23 3.134 23 7V8H25V13C25.0032 15.76 27.24 17.9967 30 18C32.76 17.9967 34.9967 15.76 35 13V8H37V7C37 3.134 33.866 0 30 0ZM33 13C33 14.6569 31.6569 16 30 16C28.3431 16 27 14.6569 27 13V8H33V13ZM25.1 6C25.5781 3.67337 27.6248 2.00262 30 2C32.3752 2.00262 34.4219 3.67337 34.9 6H25.1Z"
          fill="#111111"/>
    <path d="M31 12H29V14H31V12Z" fill="#111111"/>
    <path d="M9 36C5.134 36 2 39.134 2 43V44H4V49C4.00362 50.0855 4.36425 51.1396 5.026 52H4V60H14V52H12.974C13.6357 51.1396 13.9964 50.0855 14 49V44H16V43C16 39.134 12.866 36 9 36ZM12 58H6V54H12V58ZM12 49C12 50.6569 10.6569 52 9 52C7.34312 52 6 50.6569 6 49V44H12V49ZM4.1 42C4.57812 39.6734 6.62475 38.0026 9 38C11.3752 38.0026 13.4219 39.6734 13.9 42H4.1Z"
          fill="#111111"/>
    <path d="M10 48H8V50H10V48Z" fill="#111111"/>
    <path d="M30 36C26.134 36 23 39.134 23 43V44H25V49C25.0036 50.0855 25.3642 51.1396 26.026 52H25V60H35V52H33.974C34.6357 51.1396 34.9964 50.0855 35 49V44H37V43C37 39.134 33.866 36 30 36ZM33 58H27V54H33V58ZM33 49C33 50.6569 31.6569 52 30 52C28.3431 52 27 50.6569 27 49V44H33V49ZM25.1 42C25.5781 39.6734 27.6248 38.0026 30 38C32.3752 38.0026 34.4219 39.6734 34.9 42H25.1Z"
          fill="#111111"/>
    <path d="M31 48H29V50H31V48Z" fill="#111111"/>
    <path d="M51 36C47.134 36 44 39.134 44 43V44H46V49C46.0036 50.0855 46.3643 51.1396 47.026 52H46V60H56V52H54.974C55.6357 51.1396 55.9964 50.0855 56 49V44H58V43C58 39.134 54.866 36 51 36ZM54 58H48V54H54V58ZM54 49C54 50.6569 52.6569 52 51 52C49.3431 52 48 50.6569 48 49V44H54V49ZM46.1 42C46.5781 39.6734 48.6248 38.0026 51 38C53.3752 38.0026 55.4219 39.6734 55.9 42H46.1Z"
          fill="#111111"/>
    <path d="M52 48H50V50H52V48Z" fill="#111111"/>
    <path d="M8 20V30H10V22H16V20H8Z" fill="#111111"/>
    <path d="M44 20V22H50V30H52V20H44Z" fill="#111111"/>
    <path d="M31 32H29V34H31V32Z" fill="#111111"/>
    <path d="M52 32H50V34H52V32Z" fill="#111111"/>
    <path d="M10 32H8V34H10V32Z" fill="#111111"/>
    <path d="M20 20H18V22H20V20Z" fill="#111111"/>
    <path d="M42 20H40V22H42V20Z" fill="#111111"/>
</svg>
