<svg width="60" height="60" viewBox="0 0 60 60" fill="none" xmlns="http://www.w3.org/2000/svg">
    <g clip-path="url(#clip0)">
        <path d="M33 53.5L34.5 57.5L36 58.5L38 58L40 57L39.5 55.5V53.5L39 48.5L39.5 46.5L42 45.5L43.5 44.5V43L45.5 40.5L47 39L45.5 36L44 33.5L41 32L38 34.5L36.5 36L35 34L32.5 34.5L29 36L30 39.5L24 41L24.5 44L29.5 44.5L32 48.5L30.5 51L33 53.5Z"
              fill="#FFBF00"/>
        <path d="M60.0322 27.8682C60.0039 27.5029 59.9722 27.1401 59.9321 26.7778C59.9072 26.5698 59.876 26.3618 59.8472 26.1548C59.8018 25.834 59.7529 25.5151 59.6968 25.1968C59.6572 24.9678 59.6128 24.7388 59.5669 24.5098C59.5088 24.2251 59.4468 23.9429 59.3809 23.6602C59.3208 23.4058 59.2612 23.1509 59.1948 22.8979C59.1338 22.6689 59.0679 22.4409 59.002 22.2139C58.915 21.9141 58.8301 21.6138 58.7339 21.314C58.7148 21.2549 58.6919 21.1958 58.6719 21.1362C56.6387 15.0928 52.8052 9.81641 47.687 6.01416C47.6445 5.98486 47.5996 5.95947 47.5532 5.93799C42.5312 2.13965 36.4209 0.0581055 30.125 0C25.7891 0.0185548 21.5146 1.02393 17.625 2.93994C17.6001 2.9502 17.5732 2.95215 17.5479 2.96387C13.9028 4.76025 10.6357 7.23828 7.92285 10.2642C7.90088 10.2959 7.88037 10.3291 7.86279 10.3638C5.85596 12.6128 4.18359 15.1387 2.89697 17.8638C2.88916 17.8789 2.87305 17.8882 2.86621 17.9028C2.80615 18.0322 2.75586 18.1611 2.69824 18.29C2.59814 18.5049 2.50684 18.7222 2.41504 18.939C2.31494 19.187 2.20703 19.439 2.10889 19.6831C2.02295 19.9028 1.94092 20.125 1.85986 20.3481C1.76611 20.6069 1.67188 20.8662 1.58496 21.126C1.51807 21.3262 1.45605 21.5308 1.39307 21.7349C1.30518 22.019 1.2168 22.3042 1.13818 22.5898C1.08984 22.7661 1.04785 22.9438 1.00293 23.1201C0.922852 23.4321 0.842773 23.7451 0.773926 24.0581C0.738769 24.2148 0.711914 24.375 0.680176 24.5332C0.612793 24.8652 0.545898 25.1968 0.491211 25.5332C0.464844 25.6909 0.446777 25.8521 0.423828 26.0112C0.375 26.3428 0.324219 26.6758 0.288086 27.0112C0.265137 27.2241 0.25293 27.4399 0.233887 27.6538C0.209961 27.936 0.181152 28.2178 0.165039 28.501C0.140137 28.9912 0.125 29.5 0.125 30C0.125 30.4722 0.13916 30.9438 0.164062 31.415C0.170899 31.564 0.186035 31.7148 0.195801 31.8599C0.217773 32.1831 0.241211 32.5049 0.274902 32.8271C0.291992 32.9941 0.313965 33.1602 0.334961 33.3271C0.37207 33.6328 0.412109 33.939 0.458984 34.2441C0.483887 34.4028 0.512207 34.561 0.539062 34.7202C0.59375 35.0396 0.653809 35.3574 0.720215 35.6738C0.748047 35.8091 0.776855 35.9438 0.807129 36.0742C0.88623 36.4268 0.972168 36.7778 1.06396 37.1279C1.08887 37.2212 1.11279 37.3149 1.13916 37.4092C1.25146 37.8203 1.37354 38.2285 1.50488 38.6338C1.51514 38.665 1.52393 38.6958 1.53418 38.7271C2.85449 42.7432 4.98779 46.4443 7.80078 49.6001C7.81885 49.6211 7.84619 49.6279 7.86621 49.647C13.4805 56.1001 21.5723 59.8638 30.125 60C31.7593 59.9971 33.3901 59.8486 34.998 59.5571H35.0229C35.0688 59.5479 35.1152 59.5361 35.1611 59.5278C35.5942 59.4482 36.0249 59.3584 36.4521 59.2588C36.585 59.228 36.7168 59.1948 36.8521 59.1592C37.208 59.0708 37.561 58.9761 37.9111 58.874C38.0962 58.8208 38.2798 58.7671 38.4629 58.71C38.7529 58.6191 39.04 58.5239 39.3262 58.4248C39.5532 58.3472 39.7798 58.2681 40.0049 58.1851C40.23 58.1021 40.4658 58.0049 40.6948 57.9131C40.895 57.834 41.0889 57.7642 41.2822 57.6821C41.3032 57.6729 41.3198 57.6582 41.3398 57.6479C51.4668 53.2998 59.125 43.3892 60.0249 32.2119V32.2002C60.0249 32.1782 60.0249 32.1602 60.0249 32.1372C60.0508 31.814 60.0732 31.4888 60.0869 31.1641C60.1069 30.7568 60.1191 30.3638 60.1191 29.9961C60.1191 29.4541 60.1001 28.916 60.0679 28.3789C60.064 28.2109 60.0449 28.04 60.0322 27.8682ZM9.99219 10.9678C12.2407 8.60107 14.8618 6.61865 17.752 5.1001L17.793 5.07812L19.418 6.70312C19.5142 6.79883 19.6284 6.87451 19.7539 6.9248L24.6162 8.86914L28.1602 11.7051L25.125 12.9229L20.4961 11.0708C20.3779 11.0239 20.252 11 20.125 11C20.0522 11 19.9795 11.0078 19.9082 11.0229L11.5171 12.8892L9.98682 10.9771L9.99219 10.9678ZM8.69189 47.5679C7.66357 46.3306 6.73828 45.0107 5.9248 43.6221L5.85498 43.5029C5.47656 42.8511 5.12549 42.1875 4.80176 41.5132C4.76904 41.4438 4.73779 41.375 4.70215 41.3062C4.38623 40.6318 4.09277 39.9502 3.83398 39.2578C3.81982 39.2222 3.80811 39.1851 3.79492 39.1479C3.53857 38.4565 3.31104 37.7588 3.11279 37.0542C3.10205 37.0161 3.08887 36.978 3.0791 36.9399C2.88916 36.252 2.73291 35.5581 2.59912 34.8599C2.57715 34.749 2.55518 34.6382 2.53516 34.5269C2.41455 33.8477 2.32031 33.1655 2.25293 32.48C2.24219 32.3652 2.23389 32.249 2.22412 32.1338C2.16406 31.4238 2.125 30.7129 2.125 30C2.125 29.5498 2.13721 29.1021 2.16211 28.6558C2.16895 28.519 2.18311 28.3828 2.19189 28.2471C2.21387 27.937 2.23584 27.627 2.26807 27.3188C2.28613 27.1528 2.31006 26.9868 2.33105 26.8188C2.36523 26.5459 2.39893 26.2729 2.44092 26.002C2.47314 25.8018 2.50977 25.6089 2.5459 25.4121C2.58691 25.1812 2.62891 24.9502 2.67676 24.7202C2.7251 24.4902 2.7832 24.2441 2.83984 24.0059C2.88184 23.8281 2.92383 23.6509 2.96924 23.4741C3.04492 23.1841 3.12695 22.894 3.21289 22.605C3.24609 22.4922 3.27881 22.3799 3.31299 22.2681C3.4209 21.918 3.53711 21.5698 3.66113 21.2231C3.67578 21.1792 3.69092 21.1348 3.70703 21.0908C3.84961 20.6963 4.00195 20.3027 4.16406 19.9102L6.49902 21.7788C6.67627 21.9219 6.89746 22 7.125 22H13.0249L17.9248 22.98C18.2515 23.043 18.5884 22.9409 18.8252 22.707L21.5391 20H25.625L28.0679 23.2578L27.2148 28.3799L22.9658 30.9302L19.3662 30.0298C19.1348 29.9722 18.8906 29.9985 18.6768 30.105L14.6768 32.105C14.3906 32.2485 14.1904 32.52 14.1382 32.8359L13.1538 38.7578L12.1812 42.6509L10.335 46.3418L8.69189 47.5679ZM39.125 45C38.5728 45 38.125 45.4478 38.125 46V55C38.125 55.2651 38.2305 55.5195 38.418 55.707L39.103 56.3921C37.9688 56.8022 36.8086 57.1362 35.6299 57.3921L35.105 54.7998C35.0659 54.6069 34.9712 54.4302 34.832 54.291L31.4121 50.8711L32.957 48.5532C33.1914 48.2007 33.1787 47.7388 32.9248 47.3999L29.9248 43.3999C29.7363 43.1484 29.4399 43 29.125 43H25.125V41.8472L30.2891 40.9858C30.564 40.9399 30.8076 40.7812 30.9604 40.5483C31.1138 40.3149 31.1626 40.0288 31.0952 39.7578L30.3071 36.6001L34.0068 35.1201L36.5688 36.8281C37.0098 37.124 37.6055 37.0239 37.9248 36.6001L40.5249 33.1309L43.3491 33.8369L44.1758 36.3159C44.2036 36.4009 44.2427 36.481 44.292 36.5552L45.8369 38.873L43.417 41.293C43.2886 41.4214 43.1978 41.582 43.1538 41.7578L42.3442 45H39.125ZM41.1118 55.5732L40.125 54.5859V47H43.125C43.584 47 43.9839 46.6875 44.0952 46.2422L45.0278 42.5122L47.8281 39.7119C48.165 39.375 48.2173 38.8467 47.9531 38.4502L46.0269 35.562L45.0688 32.689C44.9619 32.3643 44.6953 32.1172 44.3628 32.0352L40.3628 31.0352C39.9727 30.9375 39.5625 31.0835 39.3208 31.4048L36.8892 34.6489L34.6758 33.1729C34.4028 32.9893 34.0562 32.9517 33.75 33.0732L28.75 35.0732C28.2852 35.2583 28.0288 35.7583 28.1499 36.2441L28.8882 39.1929L23.9561 40.0161C23.4766 40.0981 23.126 40.5137 23.125 41V44C23.125 44.5522 23.5728 45 24.125 45H28.625L30.8999 48.0342L29.293 50.4448C29.0283 50.8418 29.0811 51.3701 29.418 51.707L33.2051 55.4941L33.6602 57.7461C32.4888 57.9121 31.3076 57.9971 30.125 58C22.4902 57.8853 15.2324 54.6602 10.0308 49.0698L11.7251 47.7998C11.8496 47.707 11.9502 47.5859 12.02 47.4468L14.02 43.4468C14.0522 43.3813 14.0771 43.313 14.0952 43.2422L15.1108 39.1641L16.0269 33.6641L19.2412 32.0571L22.8828 32.9668C23.1401 33.0312 23.4126 32.9907 23.6401 32.854L28.6401 29.854C28.8911 29.7031 29.063 29.4497 29.1108 29.1611L30.1108 23.1611C30.1553 22.8926 30.0879 22.6177 29.9248 22.3999L26.9248 18.3999C26.7363 18.1484 26.4399 18 26.125 18H21.125C20.8599 18 20.6055 18.1055 20.418 18.293L17.7959 20.9141L13.3252 20.02C13.2593 20.0068 13.1924 20 13.125 20H7.47607L5.01611 18.0308C6.00977 16.0532 7.22461 14.1948 8.63721 12.4912L10.3442 14.625C10.5337 14.8623 10.8213 15 11.125 15C11.1978 15 11.2705 14.9922 11.3418 14.9771L20.042 13.043L24.7559 14.9292C24.9941 15.0239 25.2598 15.0239 25.498 14.9292L30.498 12.9292C30.8286 12.7969 31.0645 12.4995 31.1167 12.147C31.1689 11.7949 31.0303 11.4414 30.752 11.2192L25.752 7.21924C25.6748 7.15771 25.5894 7.10791 25.498 7.0708L20.687 5.14697L19.7129 4.17285C23.001 2.75146 26.543 2.01221 30.125 2C35.4229 2.04053 40.5933 3.62988 44.999 6.57324L43.9331 7H36.125C35.8247 7 35.54 7.13477 35.3501 7.36768C35.1602 7.6001 35.085 7.90576 35.145 8.2002L36.145 13.2002C36.1968 13.46 36.3496 13.6885 36.5698 13.8359L39.2852 15.646L40.1768 18.3198C40.2046 18.4048 40.2437 18.4849 40.293 18.5591L42.293 21.5591C42.4795 21.8354 42.7915 22.001 43.125 22H45.8252L51.353 25.6851L52.0532 27.0771L51.353 29.1631L47.8862 30.0298C47.6025 30.1006 47.3638 30.2915 47.2329 30.5532L46.2329 32.5532C46.0781 32.8628 46.0947 33.23 46.2764 33.5249C46.458 33.8193 46.7788 33.999 47.125 34H57.8081C56.1514 43.5088 49.9014 51.5845 41.1118 55.5732ZM58.0972 31.0142C58.0898 31.1709 58.084 31.3252 58.0732 31.4922C57.8276 31.6299 57.6021 31.8008 57.4028 32H48.7432L48.813 31.8579L52.3672 30.9702C52.6992 30.8882 52.9658 30.6411 53.0732 30.3159L54.0732 27.3159C54.1572 27.0645 54.1382 26.79 54.02 26.5532L53.02 24.5532C52.9414 24.3979 52.8242 24.2651 52.6802 24.168L46.6802 20.168C46.5156 20.0586 46.3223 20.0005 46.125 20H43.6602L42.0308 17.5571L41.0732 14.6841C41.0029 14.4731 40.8647 14.2915 40.6802 14.168L38.0249 12.3999L37.3452 9H44.125C44.252 9 44.3779 8.97607 44.4961 8.9292L46.9321 7.9541L46.9429 7.96289C47.3501 8.27881 47.7432 8.60693 48.1328 8.94092L48.3032 9.08984C48.6362 9.38281 48.9629 9.68262 49.2832 9.99023C49.3569 10.061 49.4321 10.1309 49.5059 10.2031C49.8193 10.5098 50.125 10.8232 50.4229 11.1431C50.4819 11.207 50.5449 11.269 50.604 11.334C50.9419 11.7002 51.269 12.0742 51.585 12.4561C51.71 12.606 51.8281 12.7559 51.9492 12.9141C52.1338 13.145 52.3169 13.376 52.4941 13.6138C52.6431 13.814 52.7871 14.0142 52.9312 14.2192C53.0752 14.4238 53.2119 14.6191 53.3481 14.8188C53.4839 15.019 53.6338 15.25 53.7729 15.4678C53.8999 15.668 54.0239 15.8682 54.147 16.0732C54.27 16.2778 54.4092 16.5088 54.5342 16.731C54.6592 16.9531 54.7808 17.1802 54.9009 17.4058C55.0098 17.606 55.1221 17.813 55.2261 18.02C55.3931 18.353 55.5488 18.689 55.7021 19.0269C55.7578 19.1489 55.8159 19.269 55.8701 19.3911C56.0581 19.8232 56.2349 20.2588 56.3999 20.6992C56.4531 20.8369 56.5 20.978 56.5488 21.1182C56.668 21.4492 56.7842 21.7822 56.8892 22.1182C56.939 22.2759 56.9839 22.4351 57.0308 22.5928C57.126 22.915 57.2168 23.2378 57.2998 23.563C57.3418 23.7271 57.3818 23.8931 57.4209 24.063C57.4971 24.3862 57.5669 24.7109 57.6309 25.0371C57.6641 25.2041 57.6958 25.3701 57.7261 25.5371C57.7842 25.8682 57.833 26.2002 57.8789 26.5371C57.9009 26.7012 57.9258 26.8638 57.9448 27.0278C57.9868 27.3809 58.0171 27.7349 58.0449 28.0898C58.0562 28.2339 58.0708 28.376 58.0801 28.52C58.1079 29 58.125 29.5 58.125 30C58.125 30.3389 58.1108 30.6768 58.0972 31.0142Z"
              fill="#111111"/>
        <path d="M8.125 29C8.67725 29 9.125 28.5522 9.125 28C9.125 27.4478 8.67725 27 8.125 27H7.125C6.57275 27 6.125 27.4478 6.125 28C6.125 28.5522 6.57275 29 7.125 29H8.125Z"
              fill="#111111"/>
        <path d="M22.125 28H23.125C23.6772 28 24.125 27.5522 24.125 27C24.125 26.4478 23.6772 26 23.125 26H22.125C21.5728 26 21.125 26.4478 21.125 27C21.125 27.5522 21.5728 28 22.125 28Z"
              fill="#111111"/>
        <path d="M14.125 27H15.125C15.6772 27 16.125 26.5522 16.125 26C16.125 25.4478 15.6772 25 15.125 25H14.125C13.5728 25 13.125 25.4478 13.125 26C13.125 26.5522 13.5728 27 14.125 27Z"
              fill="#111111"/>
        <path d="M9.125 34H8.125C7.57275 34 7.125 34.4478 7.125 35C7.125 35.5522 7.57275 36 8.125 36H9.125C9.67725 36 10.125 35.5522 10.125 35C10.125 34.4478 9.67725 34 9.125 34Z"
              fill="#111111"/>
        <path d="M39.125 40H38.125C37.5728 40 37.125 40.4478 37.125 41C37.125 41.5522 37.5728 42 38.125 42H39.125C39.6772 42 40.125 41.5522 40.125 41C40.125 40.4478 39.6772 40 39.125 40Z"
              fill="#111111"/>
        <path d="M35.125 43H34.125C33.5728 43 33.125 43.4478 33.125 44C33.125 44.5522 33.5728 45 34.125 45H35.125C35.6772 45 36.125 44.5522 36.125 44C36.125 43.4478 35.6772 43 35.125 43Z"
              fill="#111111"/>
        <path d="M47.125 14H46.125C45.5728 14 45.125 14.4478 45.125 15C45.125 15.5522 45.5728 16 46.125 16H47.125C47.6772 16 48.125 15.5522 48.125 15C48.125 14.4478 47.6772 14 47.125 14Z"
              fill="#111111"/>
        <path d="M53.125 19H52.125C51.5728 19 51.125 19.4478 51.125 20C51.125 20.5522 51.5728 21 52.125 21H53.125C53.6772 21 54.125 20.5522 54.125 20C54.125 19.4478 53.6772 19 53.125 19Z"
              fill="#111111"/>
    </g>
    <defs>
        <clipPath id="clip0">
            <rect width="60" height="60" fill="white"/>
        </clipPath>
    </defs>
</svg>
